// Jest Snapshot v1, https://goo.gl/fbAQLP

exports[`shallow-renders correctly 1`] = `
<div
  className="withTheme-withWidth-RctSideMenuComponent---root-1"
>
  <div
    className="withTheme-withWidth-RctSideMenuComponent---appFrame-3"
  >
    <withStyles(AppBar)
      className="withTheme-withWidth-RctSideMenuComponent---appBar-4"
    >
      <withStyles(Toolbar)
        className=""
        disableGutters={true}
      >
        <withStyles(IconButton)
          aria-label="open drawer"
          className="withTheme-withWidth-RctSideMenuComponent---menuButton-6"
          color="contrast"
          onClick={[Function]}
        >
          <pure(Menu) />
        </withStyles(IconButton)>
        <div />
      </withStyles(Toolbar)>
    </withStyles(AppBar)>
    <withStyles(Drawer)
      classes={
        Object {
          "paper": "withTheme-withWidth-RctSideMenuComponent---drawerPaper-8 withTheme-withWidth-RctSideMenuComponent---drawerPaperClose-9",
        }
      }
      open={false}
      type="permanent"
    >
      <div
        className="withTheme-withWidth-RctSideMenuComponent---drawerInner-10"
      >
        <div
          className="withTheme-withWidth-RctSideMenuComponent---drawerHeader-11"
        >
          <withStyles(IconButton)
            onClick={[Function]}
          >
            <pure(ChevronLeft) />
          </withStyles(IconButton)>
        </div>
        <withStyles(Divider) />
        <withStyles(List)>
          <SideMenuItem
            divider={false}
            icon="inbox"
            label="Inbox"
            route="/"
          />
          <SideMenuItem
            divider={false}
            icon="star"
            label="Starred"
            route="/"
          />
          <SideMenuItem
            divider={false}
            icon="send"
            label="Send mail"
            route="/"
          />
          <SideMenuItem
            divider={true}
            icon="drafts"
            label="Drafts"
            route="/"
          />
          <SideMenuItem
            divider={false}
            icon="email"
            label="All mail"
            route="/"
          />
          <SideMenuItem
            divider={false}
            icon="delete"
            label="Trash"
            route="/"
          />
          <SideMenuItem
            divider={false}
            icon="report"
            label="Spam"
            route="/"
          />
        </withStyles(List)>
      </div>
    </withStyles(Drawer)>
    <main
      className="withTheme-withWidth-RctSideMenuComponent---content-12"
    >
      <div />
    </main>
  </div>
</div>
`;
