// Jest Snapshot v1, https://goo.gl/fbAQLP

exports[`shallow-renders correctly 1`] = `
<div
  className="withTheme-withWidth-RctRightSideMenuComponent---root-1"
>
  <div
    className="withTheme-withWidth-RctRightSideMenuComponent---appFrame-2"
  >
    <main
      className="withTheme-withWidth-RctRightSideMenuComponent---content-9"
    />
    <withStyles(Tooltip)
      title="Open"
    >
      <withStyles(IconButton)
        className="withTheme-withWidth-RctRightSideMenuComponent---menuButton-11"
        onClick={[Function]}
      >
        <pure(Menu) />
      </withStyles(IconButton)>
    </withStyles(Tooltip)>
    <withStyles(Drawer)
      anchor="right"
      classes={
        Object {
          "paper": "withTheme-withWidth-RctRightSideMenuComponent---drawerWidth-3 withTheme-withWidth-RctRightSideMenuComponent---drawerPaper-4 withTheme-withWidth-RctRightSideMenuComponent---drawerPaperClose-5",
        }
      }
      open={false}
      type="persistent"
    >
      <div
        className="withTheme-withWidth-RctRightSideMenuComponent---drawerWidth-3 withTheme-withWidth-RctRightSideMenuComponent---drawerInner-6"
      >
        <div
          className="withTheme-withWidth-RctRightSideMenuComponent---drawerHeader-8"
        >
          <withStyles(Tooltip)
            title="Close"
          >
            <withStyles(IconButton)
              onClick={[Function]}
            >
              <pure(ChevronRight) />
            </withStyles(IconButton)>
          </withStyles(Tooltip)>
        </div>
        <withStyles(Divider) />
        <div
          className="withTheme-withWidth-RctRightSideMenuComponent---drawerInnerInner-7"
        >
          <div />
        </div>
      </div>
    </withStyles(Drawer)>
  </div>
</div>
`;
